  End-of-central-directory signature not found.  Either this file is not
  a zipfile, or it constitutes one disk of a multi-part archive.  In the
  latter case the central directory and zipfile comment will be found on
  the last disk(s) of this archive.
unzip:  cannot find zipfile directory in one of testDir/SomeErrorZipFile.zip or
        testDir/SomeErrorZipFile.zip.zip, and cannot find testDir/SomeErrorZipFile.zip.ZIP, period.
